,,,,,,,
L53-19,,,,,,,
,,,,,,,
S.No 序号,Code,Picture     图片,Style,Item, Price/Unit ,Qty per model, Total 
1,5301,,Glass of different colors  (4mm)不同颜色的玻璃（4mm）Special Square,Earrings 耳環, $ 0.57 ,100, $ 57.00 
2,5302,,Glass of different colors (6mm)不同颜色的玻璃（6mm）Special Square,Earrings 耳環, $ 0.60 ,100, $ 60.17 
3,5303,,Glass of different colors (8mm)不同颜色的玻璃（8mm）Special Square,Earrings 耳環, $ 0.63 ,100, $ 63.33 
4,5304,,Glass of different colors (6mm)不同颜色的玻璃（6mm）Special Square,Pendant 吊墜, $ 0.30 ,100, $ 30.08 
5,5305,,Glass of different colors (8mm)不同颜色的玻璃（8mm）Special Square,Pendant 吊墜, $ 0.32 ,100, $ 31.67 
6,5306,,Glass of different colors  (4mm)不同颜色的玻璃（4mm）,Earrings 耳環, $ 0.57 ,100, $ 57.00 
7,5307,,Glass of different colors (6mm)不同颜色的玻璃（6mm）,Earrings 耳環, $ 0.60 ,100, $ 60.17 
8,5308,,Glass of different colors (8mm)不同颜色的玻璃（8mm）,Earrings 耳環, $ 0.63 ,100, $ 63.33 
9,5309,,Glass of different colors (6mm)不同颜色的玻璃（6mm）,Pendant 吊墜, $ 0.30 ,100, $ 30.08 
10,5310,,Glass of different colors (8mm)不同颜色的玻璃（8mm）,Pendant 吊墜, $ 0.32 ,100, $ 31.67 
11,5311,,Glass of different colors  (4mm)不同颜色的玻璃（4mm）,Earrings 耳環, $ 0.57 ,100, $ 57.00 
12,5312,,Glass of different colors (6mm)不同颜色的玻璃（6mm）,Earrings 耳環, $ 0.60 ,100, $ 60.17 
13,5313,,Glass of different colors (8mm)不同颜色的玻璃（8mm）,Earrings 耳環, $ 0.70 ,100, $ 69.67 
14,5314,,Glass of different colors (6mm)不同颜色的玻璃（6mm）,Pendant 吊墜, $ 0.30 ,100, $ 30.08 
15,5315,,Glass of different colors (8mm)不同颜色的玻璃（8mm）,Pendant 吊墜, $ 0.35 ,100, $ 34.83 
16,5316,,Glass of different colors  (4mm)不同颜色的玻璃（4mm）,Earrings 耳環, $ 0.57 ,100, $ 57.00 
17,5317,,Glass of different colors (6mm)不同颜色的玻璃（6mm）,Earrings 耳環, $ 0.60 ,100, $ 60.17 
18,5318,,Glass of different colors (8mm)不同颜色的玻璃（8mm）,Earrings 耳環, $ 0.70 ,100, $ 69.67 
19,5319,,Glass of different colors (6mm)不同颜色的玻璃（6mm）,Pendant 吊墜, $ 0.30 ,100, $ 30.08 
20,5320,,Glass of different colors (8mm)不同颜色的玻璃（8mm）,Pendant 吊墜, $ 0.35 ,100, $ 34.83 
21,5301,,（Square）Glass of different colors  (4mm)不同颜色的玻璃（4mm）,Earrings 耳環, $ 0.57 ,100, $ 57.00 
22,5302,,（Square）Glass of different colors (6mm)不同颜色的玻璃（6mm）,Earrings 耳環, $ 0.60 ,100, $ 60.17 
23,5303,,（Square）Glass of different colors (8mm)不同颜色的玻璃（8mm）,Earrings 耳環, $ 0.63 ,100, $ 63.33 
24,5304,,（Square）Glass of different colors (6mm)不同颜色的玻璃（6mm）,Pendant 吊墜, $ 0.30 ,100, $ 30.08 
25,5305,,（Square）Glass of different colors (8mm)不同颜色的玻璃（8mm）,Pendant 吊墜, $ 0.32 ,100, $ 31.67 
 TOTAL ,,,,,,," $ 1,230.25 "